<?xml version="1.0"?>
<robot xmlns:xacro="http://www.ros.org/wiki/xacro">

    <xacro:macro name="create_material" params="name rgba">
        <material name="${name}">
            <color rgba="${rgba}"/>
        </material>
    </xacro:macro>

    <xacro:create_material name="transparent" rgba="0 0 0 0"/>
    <xacro:create_material name="aluminium_black" rgba="0.258 0.525 0.956 1"/>
    <xacro:create_material name="aluminium_grey" rgba="0.792 0.803 0.819 1"/>
    <xacro:create_material name="lexan" rgba="0.211 0.109 0.549 1"/>
    <xacro:create_material name="rubber" rgba="0.933 0.956 0.254 1"/>
    <xacro:create_material name="plastic_fixed" rgba="0.317 0.847 0.235 1"/>
    <xacro:create_material name="plastic_mobile" rgba="0.274 0.949 0.890 1"/>
    <xacro:create_material name="plastic_sensor" rgba="0.945 0.274 0.360 1"/>

</robot>
